-------------------------------------------------------------------------------
Test set: org.springframework.samples.petclinic.model.ValidatorTests
-------------------------------------------------------------------------------
Tests run: 1, Failures: 0, Errors: 0, Skipped: 0, Time elapsed: 0.083 s - in org.springframework.samples.petclinic.model.ValidatorTests
