/home/fitec/Hrold-web/spring-framework-petclinic/src/test/java/org/springframework/samples/petclinic/web/PetControllerTests.java
/home/fitec/Hrold-web/spring-framework-petclinic/src/test/java/org/springframework/samples/petclinic/web/OwnerControllerTests.java
/home/fitec/Hrold-web/spring-framework-petclinic/src/test/java/org/springframework/samples/petclinic/web/CrashControllerTests.java
/home/fitec/Hrold-web/spring-framework-petclinic/src/test/java/org/springframework/samples/petclinic/service/ClinicServiceJpaTests.java
/home/fitec/Hrold-web/spring-framework-petclinic/src/test/java/org/springframework/samples/petclinic/model/ValidatorTests.java
/home/fitec/Hrold-web/spring-framework-petclinic/src/test/java/org/springframework/samples/petclinic/web/VetControllerTests.java
/home/fitec/Hrold-web/spring-framework-petclinic/src/test/java/org/springframework/samples/petclinic/service/ClinicServiceJdbcTests.java
/home/fitec/Hrold-web/spring-framework-petclinic/src/test/java/org/springframework/samples/petclinic/web/PetTypeFormatterTests.java
/home/fitec/Hrold-web/spring-framework-petclinic/src/test/java/org/springframework/samples/petclinic/web/VisitControllerTests.java
/home/fitec/Hrold-web/spring-framework-petclinic/src/test/java/org/springframework/samples/petclinic/service/AbstractClinicServiceTests.java
/home/fitec/Hrold-web/spring-framework-petclinic/src/test/java/org/springframework/samples/petclinic/service/ClinicServiceSpringDataJpaTests.java
